{
    "file": "site\\templates\\_func.php",
    "textdomain": "site--templates--_func-php",
    "translations": {
        "c02bc424d44c27726f6a3372d13760ae": {
            "text": "Search"
        },
        "814e689fe795386b9c5a34ece49bb1c2": {
            "text": "Edit"
        },
        "fc24741363bd793b63ef275f6308c80d": {
            "text": "Next"
        },
        "f03e83718235c8f1013d126ee1280674": {
            "text": "Previous"
        },
        "49c1104b957960cb53bce547eb2ce494": {
            "text": "Add Some Social Profile Url"
        },
        "68b355d7f9224aa683f9097a78134c0c": {
            "text": "More"
        },
        "2035eb152b36f0877d69b62946d57ae0": {
            "text": "Comments"
        },
        "7aee09b75024e1000d9fd8491edd26ed": {
            "text": "Added"
        },
        "c31e8af0eacd1269d300a246557bd979": {
            "text": "Reply"
        },
        "1ec734164a3bdab0e0c8b8eebe5548c2": {
            "text": "Join the discussion"
        },
        "9f0bdd14b31a29107fb99662b9b32b0b": {
            "text": "Your Comment must be approved by the Administrator"
        },
        "051db39d1bb75253371094b01b3f11e2": {
            "text": "Thanks, your comment has been approved"
        },
        "a51c872673159e5de4904ae81295d7a0": {
            "text": "There were a lot of mistakes and your comment was not approved"
        },
        "2a4bdb82e1b258d4dd1e599589ab8466": {
            "text": "Name"
        },
        "082e55a73f10496681c84231dc1c88f7": {
            "text": "E-Mail"
        },
        "270fbe3669b74fdb809397f62ce6b1c0": {
            "text": "Comment"
        },
        "aeba5b89f8ef9eb1e44f6ae6ec7385e9": {
            "text": "Submit"
        },
        "885fa949931e4d785ebe47ea3dac276f": {
            "text": "\u00ab Previous Comment"
        },
        "6305adafce2619f145e7f55ff1940d3d": {
            "text": "Next Comment \u00bb"
        },
        "b1cc22b0cdca0890852c38e901388e46": {
            "text": "Read More"
        }
    }
}