{
    "file": "site\\templates\\basic-page.php",
    "textdomain": "site--templates--basic-page-php",
    "translations": {
        "2e36393d7f044fcb3f2b1e9809b385e0": {
            "text": "See More Pages"
        }
    }
}