{
    "file": "wire\/modules\/Process\/ProcessPageLister\/ProcessPageListerBookmarks.php",
    "textdomain": "wire--modules--process--processpagelister--processpagelisterbookmarks-php",
    "translations": {
        "0a88328254c6d3104aaf5aa1416e5493": {
            "text": "Dost\u0119p"
        },
        "fbfa318e948c32434209e9dec12f5342": {
            "text": "Edycja"
        },
        "a68194569adc7b00a73840fceb912c24": {
            "text": "Dost\u0119p"
        },
        "5979876e287f07dc59597ec2139675c2": {
            "text": "Usu\u0144"
        },
        "369edfa695c186fc693c7cdfea26b6d2": {
            "text": "Uwaga dla super administratora: Inni u\u017cytkownicy mog\u0105 zobaczy\u0107 i klikn\u0105\u0107 zak\u0142adki, ale nie mog\u0105 ich dodawa\u0107 lub edytowa\u0107"
        },
        "1dd63dcbc0f27a97c60433bff0936901": {
            "text": "Edytuj zak\u0142adk\u0119"
        },
        "149e49fd8162d8224947dfe253a802b5": {
            "text": "Dodaj now\u0105 zk\u0142adk\u0119"
        },
        "a84bed79c3b725dbbd17b6c4b8337a17": {
            "text": "Dodano now\u0105 zak\u0142adk\u0119 zgodn\u0105 z bierz\u0105cymi filtrami, kolumnami i kolejno\u015bci\u0105."
        },
        "644a574fca8608c6447c23ba5c9fb907": {
            "text": "Jakie role u\u017cytkownik\u00f3w mog\u0105 zobaczy\u0107 te zak\u0142adki? Je\u015bli \u017cadne role nie s\u0105 wybrane, wszystkie role z odpowiednimi uprawnieniami b\u0119d\u0105 mog\u0142y zobaczy\u0107 te zak\u0142adki."
        },
        "b527a6bf9b3ed589e44e5a4dc8cc40d4": {
            "text": "Zmiana kolejno\u015bci zak\u0142adek"
        },
        "bfa974ff994bf6af816d695d88659fda": {
            "text": "Usun\u0105\u0107 zak\u0142adke?"
        },
        "33d64e5e020fcfcd6bf5b5edc3634211": {
            "text": "Usuni\u0119to zak\u0142adk\u0119: %s"
        },
        "d04ee192f5a72f20e89abe7acb7225f3": {
            "text": "Zapisano zak\u0142adk\u0119: %s"
        },
        "84233339a29fc410e77ac95e377b0318": {
            "text": "Zak\u0142adki"
        },
        "bdb19863504282bccbd04237092c8ecb": {
            "text": "Zak\u0142adka"
        },
        "25f8473f61fb614f277d48e8bf5be8d2": {
            "text": "="
        },
        "cd765bc6c6872048db5bb4cb9181392f": {
            "text": "Kolumny"
        },
        "16f46652aa3bae21e3e051daba507193": {
            "text": "Akcja"
        },
        "97d0cf512abc18c75dc4200fb4102696": {
            "text": "wszyscy"
        },
        "624cb003e73151369680ecae1fe53f47": {
            "text": "Tytu\u0142"
        },
        "8ca63fc5a95e5a226137f8dd03ad81f0": {
            "text": "Jakie strony powinna pokaza\u0107 ta zak\u0142adka?"
        },
        "e7b51c4fbf19dfd1df7c4e05d1be6ca0": {
            "text": "Kolumny"
        }
    }
}