{
    "file": "wire\/modules\/Inputfield\/InputfieldSelector\/InputfieldSelector.module",
    "textdomain": "wire--modules--inputfield--inputfieldselector--inputfieldselector-module",
    "translations": {
        "6daa35fd97a645b8e37cae080eab3de9": {
            "text": "Dodaj pole"
        },
        "7acce3193127d4b71a6c2b140c22dc95": {
            "text": "="
        },
        "d81f0f02cd6a877358cde8fbdbad89a5": {
            "text": "="
        },
        "dab4b1ae6ff4f4a6b0ae4a2ce2601794": {
            "text": "="
        },
        "1388e1432a93282ab487548dce4847d4": {
            "text": "="
        },
        "a5dc4a847828895f72a94ab5debe5c00": {
            "text": "="
        },
        "0ccb67e7eaae09d9e4078d161eeca100": {
            "text": "R\u00f3wne"
        },
        "fb83c9b66919b4a757a43a807b6af2cf": {
            "text": "Nier\u00f3wne"
        },
        "7288454fa442d48bc741c5cbadc2621b": {
            "text": "Wi\u0119cej ni\u017c"
        },
        "45ed1ce04bcf6003d4702422e1221c85": {
            "text": "Mniej ni\u017c"
        },
        "948f7ffb9d1e26622df83711e20e2fb2": {
            "text": "Wi\u0119cej niz lub r\u00f3wne"
        },
        "189ce8ec24447eef9869d18043c9e303": {
            "text": "Mniej ni\u017c lub r\u00f3wne"
        },
        "7842f2dabc6c53dca4319818c88ebeb9": {
            "text": "Zawieraj\u0105ce tekst"
        },
        "8354008c16032b35e36589957a3bd65f": {
            "text": "Zawieraj\u0105ce fraz\u0119"
        },
        "7df149c48f0508977c06be79341a40ed": {
            "text": "Zawieraj\u0105ce s\u0142owa"
        },
        "062e49c0f9af31da4f7314124191d9ef": {
            "text": "Rozpoczynaj\u0105ce si\u0119 od"
        },
        "3ad33d3cec01f7125e3cd0575cada7ef": {
            "text": "Ko\u0144cz\u0105ce si\u0119 na"
        },
        "f9b4bd2025de32122aca0de287601aa0": {
            "text": "Nie zwieraj\u0105ce tekstu"
        },
        "c792d413c780e14f2ab0cd586af2940a": {
            "text": "Nie zwieraj\u0105ce frazy"
        },
        "f97418feca88d6e3a1747a59883b35fe": {
            "text": "Nie zwieraj\u0105ce s\u0142\u00f3w"
        },
        "256511287ee7ec2a36613f761a24370c": {
            "text": "Nie zaczynaj\u0105ce si\u0119 od"
        },
        "70e54ebce37af51191725a9b2451e1b0": {
            "text": "Nie ko\u0144czace si\u0119 na"
        },
        "1bb628612045d3d012de22cb249f83fc": {
            "text": "Rosn\u0105co"
        },
        "8ff3555e6aae7a100304c7b522bc350a": {
            "text": "Malej\u0105co"
        },
        "9f9913233699a4b67524eaac55a5f973": {
            "text": "Ma"
        },
        "aaa93244710b294d585b015dbb9b0317": {
            "text": "Nie ma"
        },
        "a61bbf7ad0ed153cb6c84fe3c8a9f2bb": {
            "text": "Pasuj\u0105ce"
        },
        "9c52ccb297567646df342a0413de3b02": {
            "text": "Nie pasuj\u0105ce"
        },
        "78c143802119a85c9774c0459240085d": {
            "text": "Jest puste"
        },
        "cbe0970a192d6df9999f4469f0854984": {
            "text": "Nie jest puste"
        },
        "278c491bdd8a53618c149c4ac790da34": {
            "text": "Szablon"
        },
        "b718adec73e04ce3ec720dd11a06a308": {
            "text": "="
        },
        "49ee3087348e8d44e1feda1917443987": {
            "text": "Nazwa"
        },
        "7acdf85c69cc3c5305456a293524386e": {
            "text": "Ukryte"
        },
        "0774e163cd7df482edd2abd498189f8b": {
            "text": "Nieopublikowane"
        },
        "d0f2e5376298c880665077b565ffd7dd": {
            "text": "Zablokowane"
        },
        "a7e253cd8dd95da3e20daf45519a8dc2": {
            "text": "Usuni\u0119te"
        },
        "9a438bd942f1f19e6a641028bcfb43ff": {
            "text": "Tymczasowe"
        },
        "a4b7f1864cfdb47cd05b54eb10337506": {
            "text": "Data modyfikacji"
        },
        "b3b60b7a5e7f9977461d42a94bf2c761": {
            "text": "Data utworzenia"
        },
        "4303f3a12b6405bb83d68a5438f1b6b8": {
            "text": "Data publikacji"
        },
        "f5248dcc5755bb5124281da75c73b828": {
            "text": "Modyfikowane przez u\u017cytkownika"
        },
        "69d1da1f16cb2c86467b8ac7495acb25": {
            "text": "Utworzone przez u\u017cytkownika"
        },
        "631e36e8090edcdfea8b0b6dfa4f75cc": {
            "text": "Ilo\u015b\u0107 podstron"
        },
        "e93f994f01c537c4e2f7d8528c3eb5e9": {
            "text": "Licznik"
        },
        "72280ef3b155dee3c1a134b8184c08a5": {
            "text": "\u015acie\u017cka\/URL"
        },
        "4b9c456267783c4e40e7da4a4a61e887": {
            "text": "Ma rodzica \/ przodka"
        },
        "d7ba791417071ac5ec60f1cea2672faf": {
            "text": "Niestandardowe (pole=warto\u015b\u0107)"
        },
        "c0272cbdf2353b9f2810944ae048b4a1": {
            "text": "pole=warto\u015b\u0107"
        },
        "d0e45878043844ffc41aac437e86b602": {
            "text": "rodzic"
        },
        "6b46ae48421828d9973deec5fa9aa0c3": {
            "text": "Sortuj"
        },
        "f4d72a64acd8929c0cc9ed96a7a336cc": {
            "text": "Zawiera"
        },
        "765c9ab816a31bfd73ee87ce63960319": {
            "text": "Ukryte + Nieopublikowane"
        },
        "b0db92ad2bbe61a11556a881e26ee82c": {
            "text": "Ukryte + Nieopublikowane + Kosz"
        },
        "b1c94ca2fbc3e78fc30069c8d0f01680": {
            "text": "Wszystkie"
        },
        "1a110fbdc786fe3100367f14c911a2da": {
            "text": "(%d bez limitu)"
        },
        "1a2ecbf77cfe45069451c9954f74ea36": {
            "text": "Stron pasuj\u0105cych do Twojego selectora"
        },
        "a7dd12b1dab17d25467b0b0a4c8d4a92": {
            "text": "poka\u017c"
        },
        "befb04e123caaa28446ca8080a5fd836": {
            "text": "Prze\u0142\u0105cz do etykiet pola"
        },
        "e3e67251cebf159d3549a0a91729605d": {
            "text": "Prze\u0142\u0105cz do nazw pola"
        },
        "f0c49f49661670cb88d2fd060c4d6a68": {
            "text": "Nie zaznaczone"
        },
        "2627637e263ef687fa978b576580b8b1": {
            "text": "Zaznaczone"
        },
        "6adf97f83acf6453d4a6a4b1070f3754": {
            "text": "Brak"
        },
        "ad666d19888133a3cebc428f7535f2af": {
            "text": "Rozpocznij pisanie ..."
        },
        "719cb425116d7d1c8b0c62c7064aaf9b": {
            "text": "Zaznacz to pole aby zmieni\u0107 ten wiersz na LUB z I"
        },
        "c7c76bcc877e95946d0158c1a0dd63a2": {
            "text": "Dopasowanie wed\u0142ug ID (subselector)"
        },
        "1d79542121869a6161bed167902ddc79": {
            "text": "Ka\u017cdy wiersz selektora powy\u017cej m\u00f3wi: pole musi odpowiada\u0107 warto\u015bci. Nazywane to jest warunkami I. W przypadkach, w kt\u00f3rych to samo pole lub warto\u015b\u0107 pojawia si\u0119 w wi\u0119cej ni\u017c jednym rz\u0119dzie, mo\u017cliwy jest warunek LUB. Obecno\u015b\u0107 pola wyboru na ko\u0144cu wiersza na to wskazuje. Zaznacz to pole wyboru, aby wiersz by\u0142 warunkiem LUB zamiast warunku I."
        },
        "63bfec5d508757f781c6e3aa5ca214b6": {
            "text": "Selektor sandbox"
        },
        "eae4975b49e9af4e0b024b1c44c7fe4f": {
            "text": "Istnieje aby przetestowa\u0107 funkcjonalno\u015b\u0107 tego pola"
        },
        "d1a7ff19fe990b9467a4a64f01a09f4e": {
            "text": "Tylko rodzic"
        },
        "8449d3ddcf7322067ea68d60a3098945": {
            "text": "Rodzic z grup\u0105 p\u00f3l"
        },
        "ea66a0a3f3311a155d84ef03a56850ca": {
            "text": "Pola systemowe"
        },
        "b12aae296eaa3d0cb3191edcf8764117": {
            "text": "Pola"
        },
        "8a605787234086b5d0155715095a1c2a": {
            "text": "Grupa p\u00f3l"
        },
        "997bf93bdd0a990a751b4b33749fb171": {
            "text": "Pola pasuj\u0105ce do tego samego elementu (1)"
        },
        "c3bd2ae49552f0fe2dd5927024fea5db": {
            "text": "Modyfikatory"
        },
        "700e1502327c4e2d38cef2f7c15b2f17": {
            "text": "Dostosowania"
        },
        "b077806311238aeddd99b979570eb107": {
            "text": "pasuje do %d strony"
        },
        "ea4311c5f366d55a9a6e38450d3bad9f": {
            "text": "pasuje do %d stron"
        },
        "80d2677cf518f4d04320042f4ea6c146": {
            "text": "="
        },
        "ec53a8c4f07baed5d8825072c89799be": {
            "text": "="
        }
    }
}