{
    "file": "wire\/modules\/Process\/ProcessPageList\/ProcessPageListActions.php",
    "textdomain": "wire--modules--process--processpagelist--processpagelistactions-php",
    "translations": {
        "9e2e4fbd398b11af3aabb1866bbb3e25": {
            "text": "Akcje wy\u0142\u0105czone w trybie demo"
        },
        "9b9d8a976b42e0bd66381797644943d5": {
            "text": "Opublikowane"
        },
        "0774e163cd7df482edd2abd498189f8b": {
            "text": "Nieopbulikowane"
        },
        "49db9a5bceddadc8512acb4b336c7464": {
            "text": "Ukryte"
        },
        "02ac38291d7be8fb1f41d85c0a428d11": {
            "text": "Odkryte"
        },
        "d0f2e5376298c880665077b565ffd7dd": {
            "text": "Zablokowane"
        },
        "c76fd517e45cc95709f4ac106efa4a94": {
            "text": "Odblokowane"
        },
        "e708704f405b4a6ec4d57cb147ea9b91": {
            "text": "Wyrzucone do kosza"
        },
        "5de66daea41e791a26f6b495ad1fc3b0": {
            "text": "Przywr\u00f3cone do: %s (od\u015bwierz stron\u0119 aby zobaczy\u0107)"
        }
    }
}