{
    "file": "wire\/modules\/Process\/ProcessField\/ProcessField.module",
    "textdomain": "wire--modules--process--processfield--processfield-module",
    "translations": {
        "c9cc8cce247e49bae79f15173ce97354": {
            "text": "Zapisz"
        },
        "72d6d7a1885885bb55a565fd1070581a": {
            "text": "Importuj"
        },
        "0095a9fa74d1713e43e370a7d7846224": {
            "text": "Eksportuj"
        },
        "817434295a673aed431435658b65d9a7": {
            "text": "Ikona"
        },
        "521c36a31c2762741cf0f8890cbe05e3": {
            "text": "W\u0142\u0105cz"
        },
        "d15305d7a4e34e02489c74a5ef542f36": {
            "text": "Wy\u0142\u0105cz"
        },
        "0b6c421579ca54de1ee2d79df5df6f05": {
            "text": "Nazwa"
        },
        "83cfa166d441c1b47108e5d6b3f21cbe": {
            "text": "Etykieta"
        },
        "516a15631804c8878a63ecc155a067fa": {
            "text": "Typ"
        },
        "f44c0dcd3537024ab1be348dffe383de": {
            "text": "System"
        },
        "e2159a4c36a7a7881992637d1da6e379": {
            "text": "Dost\u0119p"
        },
        "1f2b73286f18ea71c594652199e86dff": {
            "text": "Anuluj"
        },
        "b2a6343356c7cf0f4c1aae50c2cac1b7": {
            "text": "Usu\u0144"
        },
        "0071819b4ba5f6d112dbf1eab7cbe2ae": {
            "text": "Typ"
        },
        "7facb165145d489aeaa6743a6f9f1f55": {
            "text": "Etykieta"
        },
        "9ea1f3769ad9c72e3ebf7de539b53aa1": {
            "text": "Opis"
        },
        "a6f1b7f6b210b19d1d4ff7722c8fd790": {
            "text": "Notki"
        },
        "0e26a613a19dbe1752912c253f5b2e37": {
            "text": "Nazwa"
        },
        "0e6b389782e160492d4fe3a397e392df": {
            "text": "Etykieta"
        },
        "799ef6a367b3b36deb5be25ef8e7c91a": {
            "text": "Dost\u0119p"
        },
        "1cdcfe223f7fb1cc15748a347bf161b2": {
            "text": "Tak"
        },
        "b26a4731ede28b0686cf017804aa3574": {
            "text": "Nie"
        },
        "32bcbddae2df658b6d193932ab97720e": {
            "text": "Edycja"
        },
        "3be3efa6643b5a3f2af79ace0a5145c4": {
            "text": "Zaawansowane"
        },
        "a60852f204ed8028c1c58808b746d115": {
            "text": "="
        },
        "8cd0d0c99b062b3d22e8c7188ba33ab2": {
            "text": "Poka\u017c wszystkie"
        },
        "f3f43e30c8c7d78c6ac0173515e57a00": {
            "text": "Filtry"
        },
        "89872ab3eb9af52f34b4dd82077758fc": {
            "text": "Filtruj wed\u0142ug szablonu"
        },
        "410267bd4e3c99784bab90c5e64b5209": {
            "text": "Je\u015bli zaznaczono, tylko pola wybranego szablonu zostan\u0105 pokazane. Wbudowane pola tak\u017ce b\u0119d\u0105 widoczne gdy filtrownie ustawione jest wed\u0142ug szablonu. Gwiazdka (*) oznacza szablony systemowe."
        },
        "363746a770985e537565b276b37c438e": {
            "text": "Wy\u015bwietla pola z szablonu: %s"
        },
        "a81c2112e97c64099ff86d5b97cb13c6": {
            "text": "Pola w szablonie"
        },
        "d9a45316e3230df36980cf6ab8983485": {
            "text": "Filtruj wed\u0142ug typu pola"
        },
        "db2b4f5915e2053955edfec38776a17f": {
            "text": "Gdy wybrano, zostan\u0105 pokazane tylko pola zaznaczonego typu. Wbudowane pola s\u0105 tak\u017ce wy\u015bwietlane podczas filtrowania wed\u0142ug typu pola."
        },
        "cca90d2e0854b62dc0c77ad0e1679be4": {
            "text": "Wy\u015bwietla pola typu: %s"
        },
        "380f82872d1eb16c53b69ce4cfb45c9f": {
            "text": "Pokaza\u0107 wbudowane pola?"
        },
        "2a7b956033d031e555889f8ddd52754f": {
            "text": "Po zaznaczeniu zostan\u0105 r\u00f3wnie\u017c wy\u015bwietlone pola wbudowane. Obejmuj\u0105 one pola systemowe i pola trwa\u0142e. Pola systemowe s\u0105 wymagane przez system i nie mog\u0105 by\u0107 usuni\u0119te a ich nazwa nie mo\u017ce zosta\u0107 zmieniona. Permanentnymi polami s\u0105 te, kt\u00f3rych nie mo\u017cna usun\u0105\u0107 z szablonu. Pola te s\u0105 u\u017cywane wewn\u0119trznie przez ProcessWire."
        },
        "1535d0228ba3626bad19ec55142ffcc6": {
            "text": "Wy\u015bwietlanie wszystkich p\u00f3l, w tym p\u00f3l wbudowanych i pernamentych."
        },
        "4cca2a863deef0fc4de9115b9164537b": {
            "text": "Nie otagowane"
        },
        "288fc0452049b753c8a75464d299ffe3": {
            "text": "Brak p\u00f3l pasuj\u0105cych do filtra"
        },
        "4b170345be16c4cee0984c08ab54614d": {
            "text": "kiedy u\u017cywane z: %s"
        },
        "113304cf8780906880d1e29935deab16": {
            "text": "kiedy u\u017cywane z szablonem: %s"
        },
        "94f0fa1e6b7f766dc6432b4d8fd960ae": {
            "text": "Sprawd\u017a pole zg\u0142oszone:"
        },
        "64348e0f887e58c6002080b6153add90": {
            "text": "znaleziono porzuconych wierszy tabeli %d"
        },
        "4fd5d5323fc3d2535f351e46ba740d3c": {
            "text": "... i tak dalej ..."
        },
        "f46277b28f420e695210233a9f1401fc": {
            "text": "Prosz\u0119 uruchomi\u0107 \"Akcje > Sprawd\u017a dane pola\" w polu %s"
        },
        "bd5aef6293f875aa908466a69c08a14a": {
            "text": "Nie znaleziono \u017cadnych b\u0142\u0119d\u00f3w dla pola %s"
        },
        "8334c41e37dbbfb061177998028c6d0d": {
            "text": "Nieznane w\u0142a\u015bciwo\u015bci"
        },
        "50092a77c044bc5d91bb703429c29157": {
            "text": "Znaleziono nast\u0119puj\u0105ce w\u0142a\u015bciwo\u015bci w tym polu z zerowymi dost\u0119pami podczas konfiguracji. Czasami oznacza to, \u017ce w\u0142a\u015bciwo\u015bci nie s\u0105 ju\u017c u\u017cywane. Zaznacz pole obok ka\u017cdej w\u0142a\u015bciwo\u015bci, kt\u00f3r\u0105 chcesz usun\u0105\u0107. Je\u015bli nie jeste\u015b pewien, nie ma nic z\u0142ego w pozostawieniu ich bez zmian."
        },
        "b2ab31c6f8fbc066d4840baa6c081821": {
            "text": "Potencjalne nieznane w\u0142a\u015bciwo\u015bci znalezione w tym polu. Zobacz zak\u0142adk\u0119 \"Ostrze\u017cenia\"."
        },
        "292694f229d9162dd0a6510ff0745d4f": {
            "text": "Usun\u0105\u0107 %d porzuconych wierszy tabeli?"
        },
        "d94836b689b2cd95f920084c5f27e770": {
            "text": "Znalezione zosta\u0142y wiersze danych w tabeli dla tego pola, kt\u00f3re nie pasuj\u0105 do \u017cadnej strony lub pasuj\u0105 do stron, kt\u00f3re nie maj\u0105 tego pola."
        },
        "cca387b459a5b38bdc63657a1c52c82b": {
            "text": "Nadpisane przez szablon"
        },
        "4ac3deb7dc60a1b4770ad126c84171f7": {
            "text": "* Wskazuje, \u017ce pole to jest aktualnie nadrz\u0119dne. Ustawienia okre\u015blane na tym ekranie zast\u0119puj\u0105 domy\u015blne ustawienia tylko w przypadku u\u017cycia szablonu \"%s\"."
        },
        "0ca08f8f4a8a19f7f1ae87c119494327": {
            "text": "Nadpisania"
        },
        "b98e1358fd47b54afceecd12ace8e18c": {
            "text": "Nast\u0119puj\u0105ce ustawienia s\u0105 nadpisane dla tego pola przez wskazany szablon(szablony). Zaznacz pole wyboru po prawej stronie dowolnego wiersza, aby usun\u0105\u0107 ustawienie nadrz\u0119dne (przywr\u00f3cenie pierwotnej warto\u015bci)."
        },
        "be777931cbea33cf8f3a5f5cd994ea93": {
            "text": "Ustawienie nadpisa\u0144 dla obszaru nazw pola: %s"
        },
        "4eea024c6b0c3cd104fe2b37edf668f9": {
            "text": "Ustawienie nadpisa\u0144 dla szablonu: %s"
        },
        "7d10eb77b41ac086ecfca9a7d417b1c6": {
            "text": "Ustawienie nadpisa\u0144 przez szablonu"
        },
        "62d09c342e50351059153e99a2fdbb47": {
            "text": "Aby edytowa\u0107 ustawienie nadpisania lub aby nadpisa\u0107 inne ustawienia, edytuj dowolny szablon i kliknij nazw\u0119 pola na li\u015bcie p\u00f3l."
        },
        "2452cab12330c0a3ce62f7974eb82ba6": {
            "text": "Usu\u0144 nadpisywania kontekstowe"
        },
        "7ce33a363647f83aa612fc538dcb8214": {
            "text": "Nast\u0119puj\u0105ce ustawienia zast\u0119puj\u0105 oryginalne ustawienia pola, gdy to pole jest u\u017cywane w kontek\u015bcie szablonu \"%s\"."
        },
        "b5781496c3e514537473d4edd038152a": {
            "text": "Aby usun\u0105\u0107 dowolne z nadpisanych warto\u015bci (i przywr\u00f3ci\u0107 pierwotn\u0105 warto\u015b\u0107 pola) zaznacz pole obok ka\u017cdego ustawienia, kt\u00f3re chcesz usun\u0105\u0107 \/ przywr\u00f3ci\u0107."
        },
        "4759b9b64d72e5a1a226e72b31ff919e": {
            "text": "Edycja frontu strony"
        },
        "349838fb1d851d3e2014b9fe39203275": {
            "text": "Zainstaluj"
        },
        "b35a1460619c7aebb19fddf043d4953d": {
            "text": "Prosz\u0119 zainstalowa\u0107 modu\u0142 edytora frontu strony, aby umo\u017cliwi\u0107 edycj\u0119 p\u00f3l w froncie strony. Po zainstalowaniu, od\u015bwie\u017c i wr\u00f3\u0107 tutaj, aby uzyska\u0107 wi\u0119cej opcji."
        },
        "c64f8a38fc13441f6cc860a4cbae887a": {
            "text": "Usu\u0144 pole"
        },
        "8bcb61f8472471a1619f7bd55e2c9ad2": {
            "text": "To pole nie jest nigdzie u\u017cywane i mozna je usun\u0105\u0107"
        },
        "1fa78a97c113bed4e867ec21d9ca918f": {
            "text": "To pole nie mo\u017ce zosta\u0107 usuni\u0119te, poniewa\u017c jest u\u017cywne przez jeden lub wi\u0119cej szablon\u00f3w"
        },
        "bfacb0dba61ee131e07daaacead869c5": {
            "text": "Podstawowe ustawienia pola"
        },
        "927e2bece8a3ee4ce5f53aca157c04ec": {
            "text": "U\u017cywaj tylko liter ASCII (a-z A-Z), cyfr (0-9) lub podkre\u015blnik\u00f3w (bez spacji)."
        },
        "ab2e4f95a7971ee8077df62efa20d437": {
            "text": "Po wybraniu typu pola i zapisaniu, mog\u0105 zosta\u0107 wy\u015bwietlone dodatkowe opcje konfiguracyjne, specyficzne dla wybranego typu pola."
        },
        "158b56553ee2e91623b2568e46a4fb82": {
            "text": "Sklonuj istniej\u0105ce pole"
        },
        "219befd28b6f70d6d0a52f13c6b93772": {
            "text": "Etykieta pola (tytu\u0142 pola) wy\u015bwietlana nad polem. Je\u015bli pozostawisz puste, zamiast etykiety, zostanie u\u017cyta nazwa pola."
        },
        "d421f74dd8c605a337e57a6224f23478": {
            "text": "Dodatkowe informacje opisuj\u0105ce to pole lub\/i dodatkowe instrukcje jak to pole powinno zosta\u0107 u\u017cyte\/wype\u0142nione."
        },
        "64a747bce9561ce24781600d47b1cd66": {
            "text": "Dodatkowe informacje pojawiaj\u0105ce si\u0119 pod polem - notatki."
        },
        "d3528910cb9ca888a0c859b37fe3cb28": {
            "text": "Notatki pojawi\u0105 si\u0119 tutaj i wygl\u0105daj\u0105 nast\u0119puj\u0105co."
        },
        "c32404a847502e9920d7582aa7fcd811": {
            "text": "Dodaj lub usu\u0144 pola z szablon\u00f3w"
        },
        "bd4e327785b1573fd5108da2d97210b5": {
            "text": "To pole jest u\u017cywane w szablonach wymienionych poni\u017cej."
        },
        "1abe66d94bd2d1029f681142e99454a3": {
            "text": "To pole nie jest obecenie wykorzystywane w \u017cadnym szablonie."
        },
        "50a4257e8c785ebeb46a186bb2c3e08e": {
            "text": "Mo\u017cesz szybko doda\u0107 lub usun\u0105\u0107 to pole z szablon\u00f3w przez zaznaczenie lub odznaczenie odpowiednich p\u00f3l i klikni\u0119cie zapisz."
        },
        "8e4fd886f63504810bb594b41a48d32b": {
            "text": "Zostaniesz poproszony(a) o potwierdzenie dodania\/usuni\u0119cia w nast\u0119pnym ekranie po zapisaniu."
        },
        "5920c0593225b73a0d667fe26c95d0f7": {
            "text": "%d systemowe szablony nie s\u0105 widoczne poniewa\u017c wy\u0142\u0105czony jest tryb zaawansowany."
        },
        "983f66857047c1e6fc8878e54c5c9939": {
            "text": "Skopiowa\u0107\/sklonowa\u0107 to pole?"
        },
        "4debafe5cde021385dce21b063054b59": {
            "text": "Aby sklonowa\u0107 to pole, podaj nazw\u0119 nowego pola kt\u00f3re chcesz utworzy\u0107."
        },
        "ff0d9fae2d1ae47cb2e3c16ce883ed4e": {
            "text": "Zauwa\u017c, \u017ce b\u0119dziesz edytowa\u0107 sklonowan\u0105 kopi\u0119 po zatwierdzenie tego formularza."
        },
        "011e30aea1ad8c8e81405e295f032cc8": {
            "text": "Sprawd\u017a dane pola"
        },
        "494bfa7cbe1a6aaf0e24e92c54664859": {
            "text": "Sprawd\u017a pole po k\u0105tem nieu\u017cywanych danych lub innych mo\u017cliwych optymalizacji. Je\u015bli zostan\u0105 znalezione jakie\u015b problemy, b\u0119dziesz m\u00f3g\u0142 je poprawi\u0107 w zak\u0142adce Ostrze\u017cenia po zapisaniu."
        },
        "94109d0b682a5ee9086924792ab5d349": {
            "text": "Czy chcesz zarz\u0105dza\u0107 poziomami dost\u0119pu do tego pola?"
        },
        "8c234d4afc42f71cef48c0093be30aa5": {
            "text": "Gdy w\u0142\u0105czone, mo\u017cesz ograniczy\u0107 dost\u0119p i mo\u017cliwo\u015b\u0107 edycji tego pola poprzez role u\u017cytkownik\u00f3w."
        },
        "146cec6f36689ef0531abb613c24f68d": {
            "text": "Jakie role u\u017cytkownik\u00f3w mog\u0105 mie\u0107 dost\u0119p i\/lub mog\u0105 edytowa\u0107 to pole?"
        },
        "f66ca574111495a45f458a04c77f3c03": {
            "text": "U\u017cytkownik musi tak\u017ce posiada\u0107 uprawnienia dost\u0119pu i edycji strony, gdzie pole by\u0142o wykorzystwane, zanim te uprawnienia zosta\u0142y nadane."
        },
        "d39bf1bfbc9aef37bb8d6b935d73e53d": {
            "text": "Je\u015bli \u017cadne pole nie jest zaznaczone, tylko super administrator b\u0119dzie mia\u0142 dost\u0119p i mo\u017cliwo\u015b\u0107 edycji tre\u015bci tego pola."
        },
        "13944cf77acdf1b9e49f6383c101ae89": {
            "text": "(ka\u017cdy)"
        },
        "f41f3f2472b654b9853580182a36144a": {
            "text": "Prze\u0142\u0105czniki poziomu dost\u0119pu"
        },
        "2a154a6134b85f7f936aac0194df1bc0": {
            "text": "Poka\u017c pole w edytorze strony je\u015bli u\u017cytkownik ma dost\u0119p ale nie ma mo\u017cliwo\u015bci edycji."
        },
        "8a643d587e2bf89aa615d22c5e9efa6a": {
            "text": "Zezw\u00f3l na dost\u0119p do warto\u015bci pola z  poziomu API, nawet je\u015bli nie jest widoczne (nie ma dost\u0119pu)"
        },
        "517e6c314a1ee61caa35000768dca057": {
            "text": "Gdy pole nie jest widoczne (na na froncie strony gdy formatowanie wyj\u015bciowe jest w\u0142\u0105czone), warto\u015b\u0107 $page->%s b\u0119dzie pust\u0105 wersj\u0105 oczekiwanego typu, co uniemo\u017cliwia wy\u015bwietlenie warto\u015bci tego pola."
        },
        "5dab87f5242c802765e397e82db0840b": {
            "text": "Zaznacz pole powy\u017cej, aby unikn\u0105\u0107 takiego zachowania i sprawi\u0107 aby warto\u015b\u0107 by\u0142a zawsze dost\u0119pna z poziomu API. Daje Ci to mo\u017cliwo\u015b\u0107 dodatkowego sprawdzenia poziomu dost\u0119pu we w\u0142asnym zakresie."
        },
        "d96a1b8071d5f5f8eb8bc96839d85407": {
            "text": "Mo\u017ces sprawdzi\u0107 poziom dost\u0119pu do tego pola z poziomu API w nast\u0119puj\u0105cy spos\u00f3b:"
        },
        "ee2d3754b6e7f57898d9d8670f78ae71": {
            "text": "Zaawansowane"
        },
        "ee9fe18e631383755ce658daed18b15e": {
            "text": "Je\u015bli chcesz przypisa\u0107 ikon\u0119 do tego pola, wybierz ikon\u0119 poni\u017cej. Kilknij na \"Poka\u017c wszystkie ikony\" aby zobaczy\u0107 dost\u0119pne ikony."
        },
        "189f63f277cd73395561651753563065": {
            "text": "Tagi"
        },
        "3df354a032179f36ea493c3df6643ce1": {
            "text": "Je\u015bli chcesz wizualnie powi\u0105za\u0107 to pole z innymi polami, wprowad\u017a tag (jedno s\u0142owo). Podaj ten sam tag (s\u0142owo) we wszystkich innych polach, kt\u00f3re maj\u0105 wyst\u0119powa\u0107 w tej samej grupie. Aby u\u017cy\u0107 wielu tag\u00f3w, oddziel ka\u017cdy tag spacj\u0105. Wykorzystanie tag\u00f3w mo\u017ce by\u0107 przydatne, je\u015bli twoja strona zawiera wiele r\u00f3\u017cnych p\u00f3l."
        },
        "7f511c25eccff9ce7127eecfb136f443": {
            "text": "Ka\u017cdy tag musi by\u0107 jednym s\u0142owem (u\u017cycie my\u015blnik\u00f3w jest dozwolone)."
        },
        "78bd709db99c927f3a59a1983f18c237": {
            "text": "Aby tag zosta\u0142 zwini\u0119ty\/zamnki\u0119ty na li\u015bcie p\u00f3l, dodaj przed nim my\u015blnik, przyk\u0142ad: -hello"
        },
        "89e1299f98120a24c999cdffa860d2cb": {
            "text": "Usuni\u0119to pole"
        },
        "7d09843a01448bd5ac4ad4bcfb2c388e": {
            "text": "Nazwa pola jest wymagana"
        },
        "a9c97bb1362d6960df5b6489b9454678": {
            "text": "Typo pola jest wymagany"
        },
        "584afda122df1e41e3a533afdc1b3f6e": {
            "text": "Dodano pole"
        },
        "f173ffbd0f010d4e164484785d07b7c1": {
            "text": "usuni\u0119to nieu\u017cywane w\u0142a\u015bciow\u015bci: %s"
        },
        "1d44463bf74c66ac465f0f51cee9a827": {
            "text": "Usunieto %d nieu\u017cywanych wierszy"
        },
        "d4a2d56009360cb3a587f17538631ce9": {
            "text": "Zapisano pole"
        },
        "0a198ede7ab46185f2e9fb2a3628419b": {
            "text": "(kopia)"
        },
        "2f449cde553921e24ebc7b252209b1dc": {
            "text": "Sklonowane pole"
        },
        "acdd6513356b1414e6d7ec0181240672": {
            "text": "Edytujesz teraz sklonowane pole"
        },
        "f2b83b9c6e7b4b10852e2920effd3433": {
            "text": "B\u0142\u0105d tworzenia sklonowanej wersji tego pola"
        },
        "48cf9aec9ee1cd5173596f31f65b83e5": {
            "text": "Nazwa pola jest pusta"
        },
        "4072bd91cd44efb5ae4ef51a319fbd79": {
            "text": "Nazwa pola mo\u017ce zawiera\u0107 jedynie litery ASCII, cyfry lub podkre\u015blniki"
        },
        "2d596b898eecf76afa1f7cca2490f219": {
            "text": "Nazwa pola \"%s\" jest ju\u017c u\u017cywana"
        },
        "d0de87a477316bfd58f0bf2b1ae2d40d": {
            "text": "Nazwa pola \"%s\" jest zarezerwowanym s\u0142owem systemu"
        },
        "65016ddfb236155b595fb479c695866b": {
            "text": "Nazwa pola nie mo\u017ce zaczyna\u0107 si\u0119 od cyfr lub podkre\u015blnika \"_\""
        },
        "7d21b87f847b61b92648b2050c3c0529": {
            "text": "Nazwa pole nie mo\u017ce by\u0107 taka sama jak nazwa j\u0119zyka"
        },
        "71f8bd77c0780518e62960d62ebd72bd": {
            "text": "Usuni\u0119to nadpisanie kontekstowe"
        },
        "e49f1e280534321564ea8d40be20e4d0": {
            "text": "Zmieniono typ pola: %s"
        },
        "a3d843d337eabebe3e81df9bfef414ea": {
            "text": "Zmieniono typ pola z \"%1$s\" na \"%2$s\""
        },
        "7d04592612713885f95f51cca38d5708": {
            "text": "Nale\u017cy pami\u0119ta\u0107, \u017ce zmiana typu pola zmienia schemat bazy danych. Je\u015bli nowy typ pola nie jest zgodny ze starym lub je\u015bli zawiera znacznie inny schemat, mo\u017cliwa jest utrata danych. W rezultacie zaleca si\u0119 wykonanie kopii zapasowej bazy danych przed zako\u0144czeniem zmiany typu pola."
        },
        "cc84c47ce264c6a27bd49ff004d4c555": {
            "text": "Potwierd\u017a zmian\u0119 typu pola"
        },
        "c2311f219b7dc0a845a537a7a26fa8b3": {
            "text": "Je\u015bli napewno chcesz zmieni\u0107 typ pola, zaznacz pole poni\u017cej i zatwierd\u017a."
        },
        "58425be3f17ffb9574fd3e5947653330": {
            "text": "Zachowa\u0107 ustawienia pola?"
        },
        "7d912a6056deaad44add9eda5494d120": {
            "text": "Zaznacz to pole, aby zachowa\u0107 wszystkie niestandardowe ustawienia dla tego pola (z kart Pole i Detale). Jest to po\u017c\u0105dane, je\u015bli nowy typ pola ma te same lub podobne w\u0142a\u015bciwo\u015bci konfiguracyjne do starego typu pola. Mo\u017ce to jednak prowadzi\u0107 do niepotrzebnych lub zb\u0119dnych danych konfiguracyjnych zajmuj\u0105cych miejsce. Mo\u017cesz to tak\u017ce sprawdzi\u0107 p\u00f3\u017aniej w zak\u0142adce: Zaawansowane > Sprawd\u017a dane pola."
        },
        "c2fd10d6fa7d3e1e8bd7c83de24c4d95": {
            "text": "Zmiany typu pola zosta\u0142a porzucona"
        },
        "b3dd3da27d2927b5c36e28d771388c7d": {
            "text": "Typ pola zosta\u0142 zmieniony"
        },
        "b9b9ac08c6bde335d1b5758d4dfcd1da": {
            "text": "Usuni\u0119to pole \"%1$s\" z szablonu \"%2$s\""
        },
        "e84730e92daf0ff6f2ff21874c281f4e": {
            "text": "Potwierd\u017a usuni\u0119cie pola \"%1$s\" z szablonu \"%2$s\""
        },
        "d3abfd9fce44bd366ad49c2614136c14": {
            "text": "UWAGA: W rezultacie wszystkie dane tego pola zostan\u0105 nieodwracalnie usuni\u0119te"
        },
        "cdd2e54d443ebc672c6a53d756e682cd": {
            "text": "Po wykonaniu tej operacji prosimy o cierpliwo\u015b\u0107, poniewa\u017c mo\u017ce to zaj\u0105\u0107 chwil\u0119."
        },
        "501a7415f8881524421e7a19287a2c62": {
            "text": "Wygl\u0105da na to, \u017ce nie ma \u017cadnych danych przypisanych do tej kombinacji pole\/szablon"
        },
        "cbf08d0edf67562708d7ce679defc030": {
            "text": "Prosz\u0119 zaznaczy\u0107 pole aby potwierdzi\u0107."
        },
        "4da66962948d7a922e24b9821417f14f": {
            "text": "Szablon: %s"
        },
        "8aa6cad0a41ed8f9776dd6a09805c5ae": {
            "text": "Dodaj pole \"%1$s\" do szablonu \"%2$s\""
        },
        "968c4c39df4617d7356ee14137658f3f": {
            "text": "Gdzie chcesz doda\u0107 \"%s?\""
        },
        "6620d0d6ed9996e374e77091f72102be": {
            "text": "Przed %s"
        },
        "631a909b3eb785b8b3ae6d4d1a0ed886": {
            "text": "Po %s"
        },
        "57a9412e7a9b1f328ffef4cd468dabeb": {
            "text": "Dodaj jako pierwsze pole"
        },
        "c40f632e4b3c69bbd1af89f5c5f5c617": {
            "text": "Nie dodawaj"
        },
        "7c88547fdcfb8db979ff8e01a8af3cab": {
            "text": "Dodaj lub usu\u0144 z szablonu (szablon\u00f3w)"
        },
        "c7d0e111bad6f0fd32c701944fb16475": {
            "text": "Prosz\u0119 sprawdzi\u0107 i dostosowa\u0107 lub potwierd\u017a zmiany"
        },
        "368f6a2142a5d1f203ccd1a9bd8d974f": {
            "text": "Dodano pole \"%1$s\" do szablonu \"%2$s\" przed \"%3$s\""
        },
        "43f591d56700e6bc6184a8457711d4ed": {
            "text": "Dodano pole \"%1$s\" do szablonu \"%2$s\" po \"%3$s\""
        },
        "2dc7474fc7cd98da4c757c25d5acd451": {
            "text": "Usuni\u0119to pole \"%1$s\" z szablonu \"%2$s\""
        },
        "092a2d93903f42f67e257ba6fb82d6a2": {
            "text": "B\u0142\u0105d usuni\u0119cia \"%1$s\" z szablonu \"%2$s\""
        },
        "b1c94ca2fbc3e78fc30069c8d0f01680": {
            "text": "Wszystkie"
        },
        "30069b6e08c01b280dea5aec4bf871e0": {
            "text": "[puste]"
        },
        "8db6f3dfa2f2e5da6a736ec49e54f6f9": {
            "text": "Prezentacja\/widoczno\u015b\u0107 pola"
        },
        "722302e393e0ef80cae21af3a433fd64": {
            "text": "Role u\u017cytkownik\u00f3w zezwalaj\u0105 na podgl\u0105d tego pola"
        },
        "7c5a8ae55e59746ba619775959127870": {
            "text": "Role u\u017cytkownik\u00f3w zezwalaj\u0105 na edycj\u0119 tego pola"
        },
        "b1176bb4251df736f9046c88f2752937": {
            "text": "W\u0142\u0105cz kontrol\u0119 poziomu dost\u0119pu"
        },
        "d8b6bdb4b7004ffa8118daf92c70085d": {
            "text": "Wy\u0142\u0105cz kontrol\u0119 poziomu dost\u0119pu"
        },
        "4ed588740999fc9926706a97d3e6b3ff": {
            "text": "Zezw\u00f3l na dost\u0119p do warto\u015bci pola poprzez API, gdy pole nie jest widoczne"
        },
        "03161f60700feb1e18fcb34de842c31a": {
            "text": "NIE zezwalaj na dost\u0119p do warto\u015bci pola poprzez API, gdy pole nie jest widoczne"
        },
        "23831f621c230fae228ca5bccd05b83e": {
            "text": "Poka\u017c w edytorze gdy pole nie jest widoczne"
        },
        "7a3d219a780c47deeba29f396adfc6d0": {
            "text": "Ukryj w edytorze gdy pole nie jest widoczne"
        },
        "7cdb55d0d84a64ee84c14621892d8e10": {
            "text": "Pwr\u00f3ci\u0107 do listy p\u00f3l po zapisaniu pola?"
        },
        "503eff76a9f0b3c0c78997aa4370e2f0": {
            "text": "Domy\u015blnie po zapisaniu pola pozostaniesz na stronie edycji tego pola. Je\u015bli po zapisaniu chcesz powr\u00f3ci\u0107 do listy p\u00f3l, zaznacz to pole."
        },
        "a4ca5edd20d0b5d502ebece575681f58": {
            "text": "Pola"
        },
        "4b2bcb0478b24201a7d60fed561d1b42": {
            "text": "Edytuj indywidualne pola kt\u00f3re przechwuj\u0105 dane strony"
        },
        "bcb2ce4355834a060bef50afb9127603": {
            "text": "Systemowe"
        },
        "d665a1b10e02b9de8f4115d5b7078976": {
            "text": "Dodaj nowe pole"
        },
        "b342aa8cb5e92300b8b0bda3eaf8076d": {
            "text": "Szablony"
        },
        "678cad4866392ed0961cbce7d6ff550d": {
            "text": "do\u0142\u0105cz automatycznie"
        },
        "f1cb39a9250fe6002851375559d8bd85": {
            "text": "Globalne"
        },
        "46c5d71a7ab758f0ce5b9124cd8c53a4": {
            "text": "Pernamentne"
        },
        "b1100a1a039c319674c740cdc6382e92": {
            "text": "wymagane"
        },
        "06dacbad9c7587cdace10537b20b43ca": {
            "text": "poka\u017c je\u015bli ..."
        },
        "dcd217d86ebc19480f6602a1835f440d": {
            "text": "Edytuj pole: %s"
        },
        "f98b1dd6f292ac2dfa3f8b0f9a8df9b0": {
            "text": "Dodaj nowe pole"
        },
        "cb4e4304ce3fbf227cdae7fecc193fbf": {
            "text": "Ostrze\u017cenie"
        },
        "cba80ebc9ff6059cddbf49c3f46172a6": {
            "text": "Brak (domy\u015blne)"
        },
        "47ee982b17f699a3dffff43c76df78ec": {
            "text": "Szablon"
        },
        "a360c947f7ea8bd51220987c073edf15": {
            "text": "Ustawienie"
        },
        "7f8ceb624f94b152f89f7bfd06a2dff2": {
            "text": "Orygina\u0142"
        },
        "f4aa6607ad257caa74e12b30eab4b8c6": {
            "text": "Nadpisanie"
        },
        "0255524701bd52455b1ae33bf39818ff": {
            "text": "Usu\u0144 ustawienie"
        },
        "a90b5efafea041e94da7fffd2bd530a3": {
            "text": "Podstawowe"
        },
        "a698a809093ad1c25ea277ff03ae5fc7": {
            "text": "Akcje"
        },
        "995ed8becc596409849c6a652fbf5cd4": {
            "text": "Wybrane strony"
        },
        "ceb446e97d336c84d1f870ce7840e4ba": {
            "text": "Wierszy danych"
        },
        "afd2f2d22bac5fd1faf1abf753685366": {
            "text": "="
        },
        "904c279e535c872896eab899b55e9c46": {
            "text": "Podgl\u0105d"
        },
        "c869dd452643fae1887833d527dc86d0": {
            "text": "To tak\u017ce usunie %d wiersz danych."
        },
        "59da98ece56eec26f5f9edd6f051da0b": {
            "text": "To tak\u017ce usunie wierszy danych - %d ."
        }
    }
}