{
    "file": "wire\/modules\/Process\/ProcessLogger\/ProcessLogger.module",
    "textdomain": "wire--modules--process--processlogger--processlogger-module",
    "translations": {
        "ab11deae48aaa0e5cadf227120ed4ade": {
            "text": "Nazwa"
        },
        "872db811a5e431cc819ba322361af380": {
            "text": "Zmodyfikowano"
        },
        "a422bfafc484bafeef9ccbfeb175c216": {
            "text": "Utw\u00f3rz lub dodaj do pliku dziennika z interfejsu API:"
        },
        "872e46a716d24989bf3199d28e4ae86e": {
            "text": "Usuni\u0119to log: %s"
        },
        "f33458f02cd71a8319c79c2f4d89c947": {
            "text": "Przypisany plik dziennika \"%s\" (zawiera teraz %d wpis\u00f3w)"
        },
        "02bb48ec8c3eb6796671313f290e943d": {
            "text": "Zapisany nowy wpis dziennika do \"%s\""
        },
        "4ad21358c22f2457f4a4c6495c68ddf6": {
            "text": "Wpis dziennika by\u0142 pusty"
        },
        "58840cc813684ae1c5cb61d83a4c974f": {
            "text": "="
        },
        "dc770a451931e3eb28348451a1ef9896": {
            "text": "Poszukiwany tekst"
        },
        "4777bbe3c06c7939e97101b4589ba1eb": {
            "text": "Data od"
        },
        "d24e4fa285c1eab355817ed6c38ec1bd": {
            "text": "Data do"
        },
        "06df33001c1d7187fdd81ea1f5b277aa": {
            "text": "Akcje"
        },
        "de36914cd9d030bca299ef13e59e81fc": {
            "text": "Wybierz akcj\u0119 poni\u017cej. Wymagane b\u0119dzie potwierdzenie przez klikni\u0119cie przycsiku, zanim akcja zostanie wykonana."
        },
        "801ab24683a4a8c433c6eb40c48bcd9d": {
            "text": "Pobierz"
        },
        "1c53c4bdef63da21f7d99ba3bc5999f9": {
            "text": "Dodaj"
        },
        "02f9418b682bcf39e6426bc2981e2b8a": {
            "text": "Podziel"
        },
        "d7e4a58b047e3d80c673e8689567c66b": {
            "text": "Usu\u0144"
        },
        "346d021dc6749fe81c1f0faee3a38831": {
            "text": "Podziel na # dni"
        },
        "6ae864586a6fe2c99b1501c4c20e2e38": {
            "text": "Zmniejsz rozmiar pliku log\u00f3w aby zawiera\u0142 tylko w wpisy z ostatnich [n] dni."
        },
        "83f5d3fdcb74c638ae403fae1637a1fc": {
            "text": "Nowy wpis dziennika"
        },
        "c397f5454fbbd15045aaacf88b43888e": {
            "text": "Podziel ten plik dziennika teraz"
        },
        "9ac3ee6fa6d85d02c8d53149a96a0bcd": {
            "text": "Usu\u0144 ten plik dziennika teraz"
        },
        "504e5b0396525461611c2daa17c1a420": {
            "text": "Dodaj ten wpis dziennika"
        },
        "85b023a5435c54612ef3316cbc37a660": {
            "text": "Pobierz ten plik dziennika teraz"
        },
        "5157e3c765af93679ea07052f30f0a6e": {
            "text": "aktualny"
        },
        "1058f3258b7dca7c4693166c425b968d": {
            "text": "Brak odpowiadaj\u0105cych wpis\u00f3w"
        },
        "b2d37ae1cedf42ff874289b721860af2": {
            "text": "Wpisy dziennika"
        },
        "527b296f2533d0e979933116081467a8": {
            "text": "Zobacz i zarz\u0105dzaj systemowymi wpisami dziennika"
        },
        "922e48e67eab1e2b2673f5d44a6fbafd": {
            "text": "Wpisy"
        },
        "57728bfeef48fd1206314f0cd1c2576a": {
            "text": "Rozmiar"
        },
        "4c35d99800510d64691a870b65d277f4": {
            "text": "Data\/Czas"
        },
        "88cfe14e9a1a3300a1f5ef50f73a648b": {
            "text": "U\u017cytkownik"
        },
        "6ca734172827db670a1e2ea88e6c5401": {
            "text": "="
        },
        "9f3af3dbda7832b613a27b731cc3ca02": {
            "text": "Tekst"
        },
        "bd350ab4ad8284276668d82be6b20b52": {
            "text": "="
        },
        "712684fe92736fe32b1c2eb87d2360c7": {
            "text": "%d logi"
        },
        "064a2c9034205289d020252829c41052": {
            "text": "Jeden nowy wpis dziennika na stronie 1"
        },
        "b9dc13817999fcd3ea5967c020b5c043": {
            "text": "Wiele nowych wpis\u00f3w dziennika na stronie 1"
        }
    }
}