{
    "file": "wire\/core\/Functions.php",
    "textdomain": "wire--core--functions-php",
    "translations": {
        "4b3a6218bb3e3a7303e8a171a60fcf92": {
            "text": "bajty"
        },
        "3e56c011b37f0bc78fb9eb175c1181c6": {
            "text": "kilobajty"
        }
    }
}